…
# save the geospatial_data data frame before conducting the changes to lowercase 
# just in case we need it later in its current form
geospatial_data_pre_cleaning <- geospatial_data

# change id to lowercase
geospatial_data <- geospatial_data %>% 
  mutate(id = str_to_lower(id)) 

There are 55 districts in district_unemployment that are not included in geospatial_data. These cases will therefore not be part of the joined data frame.

# values in region column of district_unemployment that are not in geospatial_data
district_unemployment %>% 
  anti_join(geospatial_data, by = c("region" = "id"))

## # A tibble: 55 x 4
##    destatis_code region                              unemployed unemployment_ra…
##    <chr>         <chr>                                    <dbl>            <dbl>
##  1 03156         osterode am harz                            NA               NA
##  2 05354         aachen                                      NA               NA
##  3 13001         kreisfreie stadt greifswald                 NA               NA
##  4 13002         kreisfreie stadt neubrandenburg, s…         NA               NA
##  5 13005         kreisfreie stadt stralsund                  NA               NA
##  6 13006         kreisfreie stadt wismar                     NA               NA
##  7 13051         bad doberan                                 NA               NA
##  8 13052         demmin                                      NA               NA
##  9 13053         güstrow                                     NA               NA
## 10 13054         ludwigslust                                 NA               NA
## # … with 45 more rows
…
Filtering for those 17 districts in district_unemployment reveals the problem.

district_unemployment %>% 
  filter(region %in% duplicate_region) %>% 
  arrange(region, unemployed)

## # A tibble: 34 x 4
##    destatis_code region                     unemployed unemployment_rate
##    <chr>         <chr>                           <dbl>             <dbl>
##  1 15081         altmarkkreis salzwedel           2908               6.4
##  2 15370         altmarkkreis salzwedel             NA              NA  
##  3 14625         bautzen                          7872               5  
##  4 14272         bautzen                            NA              NA  
##  5 15084         burgenlandkreis                  6043               6.5
##  6 15256         burgenlandkreis                    NA              NA  
##  7 14511         chemnitz, kreisfreie stadt       8099               6.5
##  8 14161         chemnitz, kreisfreie stadt         NA              NA  
##  9 14612         dresden, kreisfreie stadt       16763               5.6
## 10 14262         dresden, kreisfreie stadt          NA              NA  
## # … with 24 more rows
district_unemployment has 17 duplicate regions

each of those 17 regions has 2 observations: one has values for unemployment and one has missing values

Solution: Remove those observations in data_joined that are from one of those 17 duplicate regions AND have missing values in the variable unemployed in order to only keep the cases with actual unemployment data for the 17 districts in question.

# keep current version of data_joined for later illustration
data_joined_old <- data_joined

Let us take a look at the problematic cases in data_joined.

data_joined %>% 
  filter(id %in% duplicate_region) 

## # A tibble: 54,274 x 10
##      long    lat order hole  piece district id    destatis_code unemployed
##     <dbl>  <dbl> <int> <lgl> <fct> <fct>    <chr> <chr>              <dbl>
##  1 3.63e6 5.83e6  6394 FALSE 1     Altmark… altm… 15081               2908
##  2 3.63e6 5.83e6  6394 FALSE 1     Altmark… altm… 15370                 NA
##  3 3.63e6 5.83e6  6395 FALSE 1     Altmark… altm… 15081               2908
##  4 3.63e6 5.83e6  6395 FALSE 1     Altmark… altm… 15370                 NA
##  5 3.63e6 5.83e6  6396 FALSE 1     Altmark… altm… 15081               2908
##  6 3.63e6 5.83e6  6396 FALSE 1     Altmark… altm… 15370                 NA
##  7 3.63e6 5.83e6  6397 FALSE 1     Altmark… altm… 15081               2908
##  8 3.63e6 5.83e6  6397 FALSE 1     Altmark… altm… 15370                 NA
##  9 3.63e6 5.83e6  6398 FALSE 1     Altmark… altm… 15081               2908
## 10 3.63e6 5.83e6  6398 FALSE 1     Altmark… altm… 15370                 NA
## # … with 54,264 more rows, and 1 more variable: unemployment_rate <dbl>

problematic_cases <- data_joined %>% 
  filter(((id %in% duplicate_region) & is.na(unemployed))) 
problematic_cases

## # A tibble: 27,137 x 10
##      long    lat order hole  piece district id    destatis_code unemployed
##     <dbl>  <dbl> <int> <lgl> <fct> <fct>    <chr> <chr>              <dbl>
##  1 3.63e6 5.83e6  6394 FALSE 1     Altmark… altm… 15370                 NA
##  2 3.63e6 5.83e6  6395 FALSE 1     Altmark… altm… 15370                 NA
##  3 3.63e6 5.83e6  6396 FALSE 1     Altmark… altm… 15370                 NA
##  4 3.63e6 5.83e6  6397 FALSE 1     Altmark… altm… 15370                 NA
##  5 3.63e6 5.83e6  6398 FALSE 1     Altmark… altm… 15370                 NA
##  6 3.63e6 5.83e6  6399 FALSE 1     Altmark… altm… 15370                 NA
##  7 3.63e6 5.83e6  6400 FALSE 1     Altmark… altm… 15370                 NA
##  8 3.63e6 5.83e6  6401 FALSE 1     Altmark… altm… 15370                 NA
##  9 3.63e6 5.83e6  6402 FALSE 1     Altmark… altm… 15370                 NA
## 10 3.63e6 5.83e6  6403 FALSE 1     Altmark… altm… 15370                 NA
## # … with 27,127 more rows, and 1 more variable: unemployment_rate <dbl>
…
5. Are there Districts where there is no unemployment data available?

In Task 4 it says “color those districts white, where no unemployment data is available”. When my final data frame data_joined had no missing values in the variable unemployment_rate and my plot therefore did not show any missings, I wondered why missings were explicitly mentioned in the task. The following code shows that there are missing unemployment data for the regions in geospatial_data if one does not account for the fact, that district_unemployment contains 17 districts for which there are 2 observations per district. One with missing values and one with unemployment data.

duplicates <- district_unemployment %>% 
  filter(region %in% duplicate_region) %>% 
  arrange(region, unemployed)
duplicates

## # A tibble: 34 x 4
##    destatis_code region                     unemployed unemployment_rate
##    <chr>         <chr>                           <dbl>             <dbl>
##  1 15081         altmarkkreis salzwedel           2908               6.4
##  2 15370         altmarkkreis salzwedel             NA              NA  
##  3 14625         bautzen                          7872               5  
##  4 14272         bautzen                            NA              NA  
##  5 15084         burgenlandkreis                  6043               6.5
##  6 15256         burgenlandkreis                    NA              NA  
##  7 14511         chemnitz, kreisfreie stadt       8099               6.5
##  8 14161         chemnitz, kreisfreie stadt         NA              NA  
##  9 14612         dresden, kreisfreie stadt       16763               5.6
## 10 14262         dresden, kreisfreie stadt          NA              NA  
## # … with 24 more rows
…
