Twitter Analyse: Textanalyse der Tweets der Kandidaten um das Amt des Präsidenten der USA | Nicolas Mollier
…
In der Regel werden die Tweets des Präsidenten öfters retweetet als die von Joe Biden.
Allerdings geht aus der Grafik hervor, dass Joe Biden an einem bestimmten Tag ungewöhnlich viele Retweets erzielte.

mean_retweet_comparison %>%
  filter(candidate == "biden") %>% 
  arrange(desc(retweet_count))

## # A tibble: 98 x 3
##    date       candidate retweet_count
##    <date>     <fct>             <dbl>
##  1 2020-08-11 biden            46829.
##  2 2020-06-08 biden            26314.
##  3 2020-08-24 biden            24572.
##  4 2020-09-04 biden            21974.
##  5 2020-08-31 biden            21936.
##  6 2020-07-04 biden            21482.
##  7 2020-07-17 biden            20378.
##  8 2020-08-29 biden            20125.
##  9 2020-06-28 biden            19948.
## 10 2020-06-21 biden            19825 
## # … with 88 more rows
…
